{
  "D_Version": "June2021_40Tick_130000",
  "M_Version": "JForceLearn.model.baseline_1_1",
  "T_Version": "JForceLearn.learning.baseline_1_0",

  "OUT_DIR": "June2021_baseline_1.1_timeless",

  "TIMESTEPS": 10,
  "PREDICT_SIZE": 5,
  "COLUMNS": [ "red_jets", "red_AIM9_fired", "red_AGM88_fired", "red_AIM120_fired", "blue_jets", "blue_AIM9_fired", "blue_AGM88_fired", "blue_AIM120_fired"],

  "WIN_THRESHOLD": 10,
  "MSE_LABELS": ["red_jets", "blue_jets"],
  "EPOCHS": 60,
  "BATCH_SIZE": 16,

  "INCLUDE_OUTLIER": "False",
  "CHECKPOINT_NAME": "baseline_1.1_June2021_10t05_timeless.model"

}