{
  "D_Version": "June2021_40Tick_130000",
  "M_Version": "JForceLearn.model.classification_lstm_1_2",
  "T_Version": "JForceLearn.learning.classification_1_2",

  "OUT_DIR": "June2021_classification_lstm_l1_1.2_timeless",

  "TIMESTEPS": 10,
  "PREDICT_SIZE": 1,
  "COLUMNS": [ "red_jets", "red_AIM9_fired", "red_AGM88_fired", "red_AIM120_fired", "blue_jets", "blue_AIM9_fired", "blue_AGM88_fired", "blue_AIM120_fired"],

  "WIN_THRESHOLD": 10,
  "MSE_LABELS": ["red_jets", "blue_jets"],
  "EPOCHS": 60,
  "BATCH_SIZE": 16,

  "INCLUDE_OUTLIER": "True",
  "CHECKPOINT_NAME": "classification_lstm_l1_1.June2021.model"

}