{
  "D_Version": "normalize_all",
  "M_Version": "JForceLearn.model.baseline_0_2",
  "T_Version": "JForceLearn.learning.baseline_0_1",

  "OUT_DIR": "Normalize_all_baseline_0.2_timeless",

  "TIMESTEPS": 10,
  "PREDICT_SIZE": 5,
  "COLUMNS": ["red_jets", "red_AIM9_fired", "red_AGM88_fired", "red_AIM120_fired", "blue_jets", "blue_AIM9_fired", "blue_AGM88_fired", "blue_AIM120_fired"],

  "WIN_THRESHOLD": 10,
  "MSE_LABELS": ["red_jets", "blue_jets"],
  "EPOCHS": 60,
  "BATCH_SIZE": 16,

  "INCLUDE_OUTLIER": "True",
  "CHECKPOINT_NAME": "best.model"
}